FE 02 03 EF
FE 03 01 04 EF
FE 12 04 00 01 02 03 04 05 06 07 08 09 0A 0B 0C 0D 0E 0F EF
FE 06 04 01 02 03 04 EF

FE 02 03 EF
FE 03 01 08 EF
FE 42 04 FF FF FF FF FF FF FF FF FF FF FF FF FF FF FF FF FF FF FF FF FF FF FF FF FF FF FF FF FF FF FF FF FF FF FF FF FF FF FF FF FF FF FF FF FF FF FF FF FF FF FF FF FF FF FF FF FF FF FF FF FF FF FF FF EF
FE 0A 04 FF FF FF FF FF FF FF FF EF